…
``` r
aug %>% 
  group_by(as.factor(experience)) %>% 
  summarise(prop_1s = mean(target)) %>% 
  arrange(prop_1s)
```

    ## # A tibble: 23 x 2
    ##    `as.factor(experience)` prop_1s
    ##    <fct>                     <dbl>
    ##  1 16                        0.135
    ##  2 >20                       0.155
    ##  3 15                        0.161
    ##  4 18                        0.162
    ##  5 19                        0.162
    ##  6 17                        0.172
    ##  7 12                        0.177
    ##  8 14                        0.185
    ##  9 13                        0.199
    ## 10 10                        0.201
    ## # ... with 13 more rows
…
